{
  "result": {
    "item": "lucraftcore:ingot_bronze"
  },
  "pattern": [
    "XXX",
    "XXX",
    "XXX"
  ],
  "type": "forge:ore_shaped",
  "key": {
    "X": {
      "item": "#NUGGETBRONZE"
    }
  },
  "group": "lucraftcore:nuggets_to_ingot"
}