{
  "result": {
    "item": "lucraftcore:tri_polymer_light_blue"
  },
  "ingredients": [
    {
      "item": "#DYELIGHTBLUE"
    },
    {
      "item": "#PLATEIRON"
    },
    {
      "item": "minecraft:leather"
    }
  ],
  "type": "forge:ore_shapeless",
  "group": "lucraftcore:tri_polymer"
}